STA 199 Spring 2025 - Tidying data
…
The challenge

How do we go from this…

# A tibble: 4 × 8
  degree `2011` `2012` `2013` `2014` `2015` `2016` `2017`
  <fct>   <dbl>  <dbl>  <dbl>  <dbl>  <dbl>  <dbl>  <dbl>
1 AB2        NA      1     NA     NA      4      4      1
2 AB          2      2      4      1      3      6      3
3 BS2         2      6      1     NA      5      6      6
4 BS          5      9      4     13     10     17     24

…to this?

# A tibble: 56 × 3
   degree_type  year     n
   <fct>       <dbl> <dbl>
 1 AB2          2011     0
 2 AB2          2012     1
 3 AB2          2013     0
 4 AB2          2014     0
 5 AB2          2015     4
 6 AB2          2016     4
 7 AB2          2017     1
 8 AB2          2018     0
 9 AB2          2019     0
10 AB2          2020     1
11 AB2          2021     2
12 AB2          2022     0
13 AB2          2023     3
14 AB2          2024     1
15 AB           2011     2
16 AB           2012     2
# ℹ 40 more rows

With the command pivot_longer()!

pivot_longer()

Pivot the statsci data frame longer such that each row represents a degree type / year combination and year and number of graduates for that year are columns in the data frame.

statsci |>
  pivot_longer(
    cols = -degree,
    names_to = "year",
    values_to = "n"
  )

# A tibble: 56 × 3
   degree                    year      n
   <chr>                     <chr> <dbl>
 1 Statistical Science (AB2) 2011     NA
 2 Statistical Science (AB2) 2012      1
 3 Statistical Science (AB2) 2013     NA
 4 Statistical Science (AB2) 2014     NA
 5 Statistical Science (AB2) 2015      4
 6 Statistical Science (AB2) 2016      4
 7 Statistical Science (AB2) 2017      1
 8 Statistical Science (AB2) 2018     NA
 9 Statistical Science (AB2) 2019     NA
10 Statistical Science (AB2) 2020      1
# ℹ 46 more rows
…
It’s a character (chr) variable since the information came from the columns of the original data frame and R cannot know that these character strings represent years. The variable type should be numeric.

pivot_longer() again

Start over with pivoting, and this time also make sure year is a numerical variable in the resulting data frame.

statsci |>
  pivot_longer(
    cols = -degree,
    names_to = "year",
    values_to = "n",
    names_transform = as.numeric,
  )

# A tibble: 56 × 3
   degree                     year     n
   <chr>                     <dbl> <dbl>
 1 Statistical Science (AB2)  2011    NA
 2 Statistical Science (AB2)  2012     1
 3 Statistical Science (AB2)  2013    NA
 4 Statistical Science (AB2)  2014    NA
 5 Statistical Science (AB2)  2015     4
 6 Statistical Science (AB2)  2016     4
 7 Statistical Science (AB2)  2017     1
 8 Statistical Science (AB2)  2018    NA
 9 Statistical Science (AB2)  2019    NA
10 Statistical Science (AB2)  2020     1
# ℹ 46 more rows
…
Clean-up

Add on to your pipeline that you started with pivoting and convert NAs in n to 0s.

statsci |>
  pivot_longer(
    cols = -degree,
    names_to = "year",
    names_transform = as.numeric,
    values_to = "n"
  ) |>
  mutate(n = if_else(is.na(n), 0, n))

# A tibble: 56 × 3
   degree                     year     n
   <chr>                     <dbl> <dbl>
 1 Statistical Science (AB2)  2011     0
 2 Statistical Science (AB2)  2012     1
 3 Statistical Science (AB2)  2013     0
 4 Statistical Science (AB2)  2014     0
 5 Statistical Science (AB2)  2015     4
 6 Statistical Science (AB2)  2016     4
 7 Statistical Science (AB2)  2017     1
 8 Statistical Science (AB2)  2018     0
 9 Statistical Science (AB2)  2019     0
10 Statistical Science (AB2)  2020     1
# ℹ 46 more rows
…
statsci |>
  pivot_longer(
    cols = -degree,
    names_to = "year",
    names_transform = as.numeric,
    values_to = "n"
  ) |>
  mutate(n = if_else(is.na(n), 0, n)) |>
  separate(degree, sep = " \\(", into = c("major", "degree_type")) |>
  mutate(
    degree_type = str_remove(degree_type, "\\)"),
    degree_type = fct_relevel(degree_type, "BS", "BS2", "AB", "AB2")
  )

# A tibble: 56 × 4
   major               degree_type  year     n
   <chr>               <fct>       <dbl> <dbl>
 1 Statistical Science AB2          2011     0
 2 Statistical Science AB2          2012     1
 3 Statistical Science AB2          2013     0
 4 Statistical Science AB2          2014     0
 5 Statistical Science AB2          2015     4
 6 Statistical Science AB2          2016     4
 7 Statistical Science AB2          2017     1
 8 Statistical Science AB2          2018     0
 9 Statistical Science AB2          2019     0
10 Statistical Science AB2          2020     1
# ℹ 46 more rows
…
