STA 199 Spring 2025 – Model selection for logistic regression
…
Interpretations are strange and delicate.

Here’s an alternative model

Dump all the predictors in:

full_logistic_fit <- logistic_reg() |>
  fit(spam ~ ., data = email)

tidy(full_logistic_fit)

# A tibble: 22 × 5
   term         estimate std.error statistic  p.value
   <chr>           <dbl>     <dbl>     <dbl>    <dbl>
 1 (Intercept)  -9.09e+1   9.80e+3  -0.00928 9.93e- 1
 2 to_multiple1 -2.68e+0   3.27e-1  -8.21    2.25e-16
 3 from1        -2.19e+1   9.80e+3  -0.00224 9.98e- 1
 4 cc            1.88e-2   2.20e-2   0.855   3.93e- 1
 5 sent_email1  -2.07e+1   3.87e+2  -0.0536  9.57e- 1
 6 time          8.48e-8   2.85e-8   2.98    2.92e- 3
 7 image        -1.78e+0   5.95e-1  -3.00    2.73e- 3
 8 attach        7.35e-1   1.44e-1   5.09    3.61e- 7
 9 dollar       -6.85e-2   2.64e-2  -2.59    9.64e- 3
10 winneryes     2.07e+0   3.65e-1   5.67    1.41e- 8
# ℹ 12 more rows
…
.pred_class: model prediction (\(\hat{y}\)) based on a 50% threshold;

.pred_0: model estimate of \(P(y=0)\);

.pred_1: model estimate of \(P(y=1) = 1 - P(y = 0)\).

The augment function

The augment function takes a data frame and “augments” it by adding three new columns on the left that describe the model predictions for each row:

log_aug_full <- augment(full_logistic_fit, email)
log_aug_full

# A tibble: 3,921 × 24
   .pred_class .pred_0  .pred_1 spam  to_multiple from     cc sent_email
   <fct>         <dbl>    <dbl> <fct> <fct>       <fct> <int> <fct>     
 1 0             0.867 1.33e- 1 0     0           1         0 0         
 2 0             0.943 5.70e- 2 0     0           1         0 0         
 3 0             0.942 5.78e- 2 0     0           1         0 0         
 4 0             0.920 7.96e- 2 0     0           1         0 0         
 5 0             0.903 9.74e- 2 0     0           1         0 0         
 6 0             0.901 9.87e- 2 0     0           1         0 0         
 7 0             1.00  7.89e-12 0     1           1         0 1         
 8 0             1.00  1.24e-12 0     1           1         1 1         
 9 0             0.862 1.38e- 1 0     0           1         0 0         
10 0             0.922 7.76e- 2 0     0           1         0 0         
# ℹ 3,911 more rows
# ℹ 16 more variables: time <dttm>, image <dbl>, attach <dbl>, dollar <dbl>,
#   winner <fct>, inherit <dbl>, viagra <dbl>, password <dbl>, num_char <dbl>,
#   line_breaks <int>, format <fct>, re_subj <fct>, exclaim_subj <dbl>,
#   urgent_subj <fct>, exclaim_mess <dbl>, number <fct>
…
Data

The U.S. Forest Service maintains machine learning models to predict whether a plot of land is “forested.”

This classification is important for research, legislation, land management, etc. purposes.

Plots are typically remeasured every 10 years.

The forested dataset contains the most recent measurement per plot.

Data: forested

forested

# A tibble: 7,107 × 19
   forested  year elevation eastness northness roughness tree_no_tree dew_temp
   <fct>    <dbl>     <dbl>    <dbl>     <dbl>     <dbl> <fct>           <dbl>
 1 Yes       2005       881       90        43        63 Tree             0.04
 2 Yes       2005       113      -25        96        30 Tree             6.4 
 3 No        2005       164      -84        53        13 Tree             6.06
 4 Yes       2005       299       93        34         6 No tree          4.43
 5 Yes       2005       806       47       -88        35 Tree             1.06
 6 Yes       2005       736      -27       -96        53 Tree             1.35
 7 Yes       2005       636      -48        87         3 No tree          1.42
 8 Yes       2005       224      -65       -75         9 Tree             6.39
 9 Yes       2005        52      -62        78        42 Tree             6.5 
10 Yes       2005      2240      -67       -74        99 No tree         -5.63
# ℹ 7,097 more rows
# ℹ 11 more variables: precip_annual <dbl>, temp_annual_mean <dbl>,
#   temp_annual_min <dbl>, temp_annual_max <dbl>, temp_january_min <dbl>,
#   vapor_min <dbl>, vapor_max <dbl>, canopy_cover <dbl>, lon <dbl>, lat <dbl>,
#   land_type <fct>
…
This allows us to reproduce results by setting that seed.

Which seed you pick doesn’t matter, as long as you don’t try a bunch of seeds and pick the one that gives you the best performance.

Accessing the data

forested_train <- training(forested_split)
forested_test <- testing(forested_split)

The training set

forested_train

# A tibble: 5,330 × 19
   forested  year elevation eastness northness roughness tree_no_tree dew_temp
   <fct>    <dbl>     <dbl>    <dbl>     <dbl>     <dbl> <fct>           <dbl>
 1 Yes       2013       315      -17        98        92 Tree             5.83
 2 No        2018       374       93       -34        23 No tree          0.7 
 3 No        2017       377       44       -89         1 Tree             1.83
 4 Yes       2013       541       31       -94       139 Tree             4.19
 5 Yes       2017       680       14       -98        20 Tree             0.79
 6 Yes       2017      1482       76       -64        43 Tree            -0.18
 7 No        2020        84       42       -90        12 No tree          6.9 
 8 Yes       2011       210       34        93        16 Tree             5.52
 9 No        2020       766       14        98        20 No tree          1.52
10 Yes       2013      1559       98        16        79 Tree            -3.45
# ℹ 5,320 more rows
# ℹ 11 more variables: precip_annual <dbl>, temp_annual_mean <dbl>,
#   temp_annual_min <dbl>, temp_annual_max <dbl>, temp_january_min <dbl>,
#   vapor_min <dbl>, vapor_max <dbl>, canopy_cover <dbl>, lon <dbl>, lat <dbl>,
#   land_type <fct>

The testing data

forested_test

# A tibble: 1,777 × 19
   forested  year elevation eastness northness roughness tree_no_tree dew_temp
   <fct>    <dbl>     <dbl>    <dbl>     <dbl>     <dbl> <fct>           <dbl>
 1 Yes       2005       881       90        43        63 Tree             0.04
 2 Yes       2005       636      -48        87         3 No tree          1.42
 3 Yes       2005      2240      -67       -74        99 No tree         -5.63
 4 Yes       2014       940      -93        35        50 Tree            -0.15
 5 No        2014       246       22       -97         5 Tree             2.41
 6 No        2014       419       86       -49         5 No tree          1.87
 7 No        2014       308      -70       -70         4 No tree          3.07
 8 No        2014       302      -31       -94         1 No tree          2.55
 9 No        2014       340      -54        83        60 No tree          1.29
10 No        2014       792      -61       -79        30 No tree          0.25
# ℹ 1,767 more rows
# ℹ 11 more variables: precip_annual <dbl>, temp_annual_mean <dbl>,
#   temp_annual_min <dbl>, temp_annual_max <dbl>, temp_january_min <dbl>,
#   vapor_min <dbl>, vapor_max <dbl>, canopy_cover <dbl>, lon <dbl>, lat <dbl>,
#   land_type <fct>
…
