Midterm 2 Practice Answers – STA 199 Spring 2025
…
a.

# A tibble: 4 × 5
  term         estimate std.error statistic  p.value
  <chr>           <dbl>     <dbl>     <dbl>    <dbl>
1 (Intercept)   -2.26      0.0581    -38.9  0       
2 dollar        -0.0663    0.0195     -3.40 6.86e- 4
3 winneryes      1.78      0.287       6.21 5.21e-10
4 urgent_subj1   2.61      0.767       3.40 6.75e- 4

b.

# A tibble: 3,921 × 24
   .pred_class .pred_0 .pred_1 spam  to_multiple from     cc sent_email
   <fct>         <dbl>   <dbl> <fct> <fct>       <fct> <int> <fct>     
 1 0             0.906  0.0944 0     0           1         0 0         
 2 0             0.906  0.0944 0     0           1         0 0         
 3 0             0.926  0.0740 0     0           1         0 0         
 4 0             0.906  0.0944 0     0           1         0 0         
 5 0             0.906  0.0944 0     0           1         0 0         
 6 0             0.906  0.0944 0     0           1         0 0         
 7 0             0.906  0.0944 0     1           1         0 1         
 8 0             0.906  0.0944 0     1           1         1 1         
 9 0             0.906  0.0944 0     0           1         0 0         
10 0             0.906  0.0944 0     0           1         0 0         
# ℹ 3,911 more rows
# ℹ 16 more variables: time <dttm>, image <dbl>, attach <dbl>, dollar <dbl>,
#   winner <fct>, inherit <dbl>, viagra <dbl>, password <dbl>, num_char <dbl>,
#   line_breaks <int>, format <fct>, re_subj <fct>, exclaim_subj <dbl>,
#   urgent_subj <fct>, exclaim_mess <dbl>, number <fct>
…
