STA 199 Spring 2025 - AE 06: Sales taxes + data joining
…
Create new swing_state variable using if_else:

list_of_swing_states <- c("Arizona", "Georgia", "Michigan", "Nevada", 
                          "North Carolina", "Pennsylvania", "Wisconsin")

sales_taxes <- sales_taxes |>
  mutate(
    swing_state = if_else(state %in% list_of_swing_states,
                          "Swing",
                          "Non-swing")) |>
  relocate(swing_state)

sales_taxes

# A tibble: 51 × 6
   swing_state state       state_tax_rate avg_local_tax_rate combined_rate
   <chr>       <chr>                <dbl>              <dbl>         <dbl>
 1 Non-swing   Alabama             0.04               0.0529        0.0929
 2 Non-swing   Alaska              0                  0.0182        0.0182
 3 Swing       Arizona             0.056              0.0278        0.0838
 4 Non-swing   Arkansas            0.065              0.0295        0.0945
 5 Non-swing   California          0.0725             0.016         0.0885
 6 Non-swing   Colorado            0.029              0.0491        0.0781
 7 Non-swing   Connecticut         0.0635             0             0.0635
 8 Non-swing   Delaware            0                  0             0     
 9 Non-swing   Florida             0.06               0.01          0.07  
10 Swing       Georgia             0.04               0.0338        0.0738
# ℹ 41 more rows
# ℹ 1 more variable: max_local_tax_rate <dbl>
…
sales_taxes <- sales_taxes |>
  mutate(
    coast = case_when(
      state %in% pacific_coast ~ "Pacific",
      state %in% atlantic_coast ~ "Atlantic",
      .default = "Neither"
    )
  ) |>
  relocate(coast)

sales_taxes

# A tibble: 51 × 7
   coast    swing_state state    state_tax_rate avg_local_tax_rate combined_rate
   <chr>    <chr>       <chr>             <dbl>              <dbl>         <dbl>
 1 Neither  Non-swing   Alabama          0.04               0.0529        0.0929
 2 Pacific  Non-swing   Alaska           0                  0.0182        0.0182
 3 Neither  Swing       Arizona          0.056              0.0278        0.0838
 4 Neither  Non-swing   Arkansas         0.065              0.0295        0.0945
 5 Pacific  Non-swing   Califor…         0.0725             0.016         0.0885
 6 Neither  Non-swing   Colorado         0.029              0.0491        0.0781
 7 Atlantic Non-swing   Connect…         0.0635             0             0.0635
 8 Atlantic Non-swing   Delaware         0                  0             0     
 9 Atlantic Non-swing   Florida          0.06               0.01          0.07  
10 Atlantic Swing       Georgia          0.04               0.0338        0.0738
# ℹ 41 more rows
# ℹ 1 more variable: max_local_tax_rate <dbl>
…
Sales tax in US regions: joining

Join the sales tax data with region data and save the joined data frame as a new data frame, not overwriting either data frame that goes into the join.

sales_taxes_regions <- sales_taxes |>
  full_join(us_regions, 
            by = join_by(state == state_name)) |>
  relocate(region)

sales_taxes_regions

# A tibble: 51 × 8
   region    coast    swing_state state       state_tax_rate avg_local_tax_rate
   <chr>     <chr>    <chr>       <chr>                <dbl>              <dbl>
 1 South     Neither  Non-swing   Alabama             0.04               0.0529
 2 West      Pacific  Non-swing   Alaska              0                  0.0182
 3 West      Neither  Swing       Arizona             0.056              0.0278
 4 South     Neither  Non-swing   Arkansas            0.065              0.0295
 5 West      Pacific  Non-swing   California          0.0725             0.016 
 6 West      Neither  Non-swing   Colorado            0.029              0.0491
 7 Northeast Atlantic Non-swing   Connecticut         0.0635             0     
 8 South     Atlantic Non-swing   Delaware            0                  0     
 9 South     Atlantic Non-swing   Florida             0.06               0.01  
10 South     Atlantic Swing       Georgia             0.04               0.0338
# ℹ 41 more rows
# ℹ 2 more variables: combined_rate <dbl>, max_local_tax_rate <dbl>
…
