AE 20: A Dataset’s Life – STA 199 Spring 2025
…
Rows: 344
Columns: 2
$ id        <dbl> 1, 2, 3, 4, 5, 6, 7, 8, 9, 10, 11, 12, 13, 14, 15, 16, 17, 1…
$ weight_lb <chr> "3.8219301852578837", "3.56777681688403", "1.761707536468984…

Merge the data

Task: Use an appropriate join function to create a new data frame called space_penguins, where each penguin’s weight on either planet is recorded in a separate column:

space_penguins <- full_join(penguins_venus, penguins_mars, by = join_by(id)) |>
  rename(venus_weight = weight_lb.x,
         mars_weight = weight_lb.y)
space_penguins

# A tibble: 344 × 7
      id species island    sex    flipper_length_mm venus_weight mars_weight    
   <dbl> <chr>   <chr>     <chr>              <dbl>        <dbl> <chr>          
 1     1 Adelie  Torgersen male                 181         8.36 3.821930185257…
 2     2 Adelie  Torgersen female               186         7.35 3.567776816884…
 3     3 Adelie  Torgersen female               195         6.17 1.761707536468…
 4     4 Adelie  Torgersen <NA>                  NA        NA    <NA>           
 5     5 Adelie  Torgersen female               193         9.17 3.073547356370…
 6     6 Adelie  Torgersen male                 190         8.16 2.026601878680…
 7     7 Adelie  Torgersen female               181         8.58 3.318306212723…
 8     8 Adelie  Torgersen male                 195        11.9  3.772687060633…
 9     9 Adelie  Torgersen <NA>                 193         8.14 2.603709532256…
10    10 Adelie  Torgersen <NA>                 190         8.10 3.002844015041…
# ℹ 334 more rows
…
Error in `pivot_longer()`:
! Can't combine `venus_weight` <double> and `mars_weight` <character>.

Woops! Looks like we might have a problem here. Why is it saying that the Mars weights are type character?

space_penguins |>
  select(mars_weight) |>
  arrange(desc(mars_weight))

# A tibble: 344 × 1
   mars_weight                          
   <chr>                                
 1 this is why we can't have nice things
 2 get wrecked                          
 3 6.93005873361171                     
 4 6.233851410442386                    
 5 6.151607146997191                    
 6 6.054400666505051                    
 7 6.021791903417968                    
 8 6.010224782201169                    
 9 5.99589305540989                     
10 5.844409564530165                    
# ℹ 334 more rows

Oh. That’s really stupid. If we tell it to convert this column to numbers, it will do it, and anything it cannot convert (such as those two pieces of text) will simply be replaced with NA, which is fine by me in this case:

space_penguins <- space_penguins |>
  mutate(
    mars_weight = as.numeric(mars_weight)
  )

space_penguins

# A tibble: 344 × 7
      id species island    sex    flipper_length_mm venus_weight mars_weight
   <dbl> <chr>   <chr>     <chr>              <dbl>        <dbl>       <dbl>
 1     1 Adelie  Torgersen male                 181         8.36        3.82
 2     2 Adelie  Torgersen female               186         7.35        3.57
 3     3 Adelie  Torgersen female               195         6.17        1.76
 4     4 Adelie  Torgersen <NA>                  NA        NA          NA   
 5     5 Adelie  Torgersen female               193         9.17        3.07
 6     6 Adelie  Torgersen male                 190         8.16        2.03
 7     7 Adelie  Torgersen female               181         8.58        3.32
 8     8 Adelie  Torgersen male                 195        11.9         3.77
 9     9 Adelie  Torgersen <NA>                 193         8.14        2.60
10    10 Adelie  Torgersen <NA>                 190         8.10        3.00
# ℹ 334 more rows

Alright, let’s try to reshape again:

space_penguins_long <- space_penguins |>
  pivot_longer(
    cols = c(venus_weight, mars_weight),
    names_to = "planet",
    values_to = "weight_lb"
  ) |>
  mutate(
    planet = if_else(planet == "venus_weight", "Venus", "Mars")
  )
space_penguins_long

# A tibble: 688 × 7
      id species island    sex    flipper_length_mm planet weight_lb
   <dbl> <chr>   <chr>     <chr>              <dbl> <chr>      <dbl>
 1     1 Adelie  Torgersen male                 181 Venus       8.36
 2     1 Adelie  Torgersen male                 181 Mars        3.82
 3     2 Adelie  Torgersen female               186 Venus       7.35
 4     2 Adelie  Torgersen female               186 Mars        3.57
 5     3 Adelie  Torgersen female               195 Venus       6.17
 6     3 Adelie  Torgersen female               195 Mars        1.76
 7     4 Adelie  Torgersen <NA>                  NA Venus      NA   
 8     4 Adelie  Torgersen <NA>                  NA Mars       NA   
 9     5 Adelie  Torgersen female               193 Venus       9.17
10     5 Adelie  Torgersen female               193 Mars        3.07
# ℹ 678 more rows
…
