STA 199 Spring 2025 - Lab 4
…
Figure 2: The `datasaurus_dozen` data frame stacks 13 datasets on top of each other. This figure shows the first three datasets.

Note

If it’s confusing that the data frame is called datasaurus_dozen when it contains 13 datasets, you’re not alone! Have you heard of a baker’s dozen?

Here is a peek at the top 10 rows of the dataset:

datasaurus_dozen

# A tibble: 1,846 × 3
   dataset     x     y
   <chr>   <dbl> <dbl>
 1 dino     55.4  97.2
 2 dino     51.5  96.0
 3 dino     46.2  94.5
 4 dino     42.8  91.4
 5 dino     40.8  88.3
 6 dino     38.7  84.9
 7 dino     35.6  79.9
 8 dino     33.1  77.6
 9 dino     29.0  74.5
10 dino     26.2  71.4
# ℹ 1,836 more rows
…
